[
    {
        "method": "sayHello",
        "params": {
            "name": "Peter"
        },
        "returns" : "Hello Peter"
    },
    {
        "notification" : "notifyServer",
        "params": null
    }
]
